<svg width="24" height="24" viewBox="0 0 24 24" fill="none" xmlns="http://www.w3.org/2000/svg">
<g clip-path="url(#clip0)">
<circle cx="11" cy="11" r="7.17817" transform="rotate(-45 11 11)" stroke="white" stroke-width="1.2"/>
<rect x="15.7446" y="16.522" width="1.09886" height="7.69202" transform="rotate(-45 15.7446 16.522)" fill="white"/>
</g>
<defs>
<clipPath id="clip0">
<rect width="24" height="24" fill="white"/>
</clipPath>
</defs>
</svg>
