<svg width="9" height="16" viewBox="0 0 9 16" fill="none" xmlns="http://www.w3.org/2000/svg">
<path d="M1.70434 2.32285C3.40921 3.61566 5.0762 5.13933 6.66741 7.07855C6.66741 6.57066 6.66741 6.06277 6.66741 5.55488C4.35636 7.90964 2.0832 10.8185 0.151007 14.3737C-0.265739 15.1586 0.264666 16.3591 0.719299 15.8974C2.3484 14.3275 3.93961 12.7115 5.49294 10.9108C6.17489 10.1259 7.00839 9.43331 7.61456 8.37136C7.84188 7.95581 8.0692 7.63261 8.03131 6.89386C7.95554 5.00082 6.09912 3.52332 5.41717 2.83074C4.05327 1.44559 2.6136 0.522154 1.09816 0.0142644C0.529869 -0.170423 0.302552 1.49176 0.870843 1.90731C3.37132 3.75418 5.8718 5.60105 8.29651 7.86347C8.3344 7.26324 8.37229 6.70917 8.41017 6.10894C6.51587 7.77112 4.47002 9.11011 2.57572 10.9108C2.19686 11.2802 2.46206 12.573 2.8788 12.3421C4.84888 11.2802 6.78107 9.52565 8.67537 7.95581C8.97846 7.67878 9.16789 6.57066 8.78903 6.20128C6.28855 3.84652 3.7123 1.90731 1.13605 0.0142644C1.06027 0.660669 0.984502 1.2609 0.908729 1.90731C2.00743 2.27668 3.06824 2.83074 4.09116 3.70801C4.73522 4.26207 5.37929 4.90847 5.94758 5.64722C6.13701 5.87808 6.36432 6.24746 6.59164 6.47831C6.7053 6.61683 6.78107 6.75535 6.89473 6.89386C7.2357 6.61683 7.27359 6.61683 7.00839 6.89386C6.13701 8.4637 4.81099 9.52565 3.78807 10.6338C2.65149 11.8804 1.47702 13.0809 0.302552 14.189C0.491982 14.6969 0.681412 15.2048 0.870842 15.7127C2.80303 12.1574 5.00042 9.80268 7.15993 7.03238C7.42513 6.70917 7.42513 5.83191 7.15993 5.50871C5.49294 3.66184 3.75019 2.18434 1.89377 1.30707C1.55279 1.21473 1.43913 2.09199 1.70434 2.32285Z" fill="black"/>
</svg>
