<svg width="9" height="16" viewBox="0 0 9 16" fill="none" xmlns="http://www.w3.org/2000/svg">
<path d="M7.29566 2.32285C5.59079 3.61566 3.9238 5.13933 2.33259 7.07855C2.33259 6.57066 2.33259 6.06277 2.33259 5.55488C4.64364 7.90964 6.9168 10.8185 8.84899 14.3737C9.26574 15.1586 8.73533 16.3591 8.2807 15.8974C6.6516 14.3275 5.06039 12.7115 3.50706 10.9108C2.82511 10.1259 1.99161 9.43331 1.38544 8.37136C1.15812 7.95581 0.930803 7.63261 0.968689 6.89386C1.04446 5.00082 2.90088 3.52332 3.58283 2.83074C4.94673 1.44559 6.3864 0.522154 7.90184 0.0142644C8.47013 -0.170423 8.69745 1.49176 8.12916 1.90731C5.62868 3.75418 3.1282 5.60105 0.703487 7.86347C0.665601 7.26324 0.627715 6.70917 0.589828 6.10894C2.48413 7.77112 4.52998 9.11011 6.42428 10.9108C6.80314 11.2802 6.53794 12.573 6.1212 12.3421C4.15112 11.2802 2.21893 9.52565 0.324626 7.95581C0.0215374 7.67878 -0.167893 6.57066 0.210968 6.20128C2.71145 3.84652 5.2877 1.90731 7.86395 0.0142644C7.93973 0.660669 8.0155 1.2609 8.09127 1.90731C6.99257 2.27668 5.93176 2.83074 4.90884 3.70801C4.26478 4.26207 3.62071 4.90847 3.05242 5.64722C2.86299 5.87808 2.63568 6.24746 2.40836 6.47831C2.2947 6.61683 2.21893 6.75535 2.10527 6.89386C1.7643 6.61683 1.72641 6.61683 1.99161 6.89386C2.86299 8.4637 4.18901 9.52565 5.21193 10.6338C6.34851 11.8804 7.52298 13.0809 8.69745 14.189C8.50802 14.6969 8.31859 15.2048 8.12916 15.7127C6.19697 12.1574 3.99958 9.80268 1.84007 7.03238C1.57487 6.70917 1.57487 5.83191 1.84007 5.50871C3.50706 3.66184 5.24981 2.18434 7.10623 1.30707C7.44721 1.21473 7.56087 2.09199 7.29566 2.32285Z" fill="black"/>
</svg>
