<svg width="48" height="48" viewBox="0 0 48 48" fill="none" xmlns="http://www.w3.org/2000/svg">
<g clip-path="url(#clip0)">
<rect width="48" height="48" rx="12" fill="#0087CB"/>
<path d="M23.7129 0C30.2496 0.040021 35.8259 2.18781 40.4817 6.57678C45.1241 10.9657 47.6587 16.4086 47.9656 22.7986C48.2857 29.6288 46.0979 35.6053 41.3621 40.5546C36.7063 45.4238 30.9567 47.9318 24.2065 47.9985C17.9232 48.0652 12.4136 45.9574 7.79787 41.7018C2.35502 36.6725 -0.259684 30.3759 0.0204629 22.972C0.247248 16.7688 2.63517 11.4327 7.02413 7.05703C11.6532 2.42794 17.3095 0.120063 23.7129 0Z" fill="#0087CB"/>
<path d="M16.6158 27.2398C15.3084 26.8396 13.9877 26.426 12.6804 26.0258C12.04 25.8257 11.3997 25.6256 10.7594 25.4255C10.5192 25.3454 10.2925 25.2654 10.0923 25.1186C9.71882 24.8385 9.69214 24.4917 10.0123 24.1448C10.2257 23.9047 10.4926 23.7446 10.786 23.6245C11.5598 23.3177 12.3335 23.0109 13.1073 22.7041C18.4434 20.6496 23.7795 18.5819 29.129 16.5275C30.8232 15.8738 32.5041 15.2201 34.1983 14.5665C34.4251 14.4731 34.6652 14.4197 34.9187 14.4597C35.4256 14.5398 35.8125 14.9533 35.8658 15.4869C35.8925 15.7804 35.8792 16.0739 35.8258 16.3674C35.1721 19.4357 34.5185 22.5173 33.8648 25.5856C33.3312 28.1202 32.7842 30.6549 32.2506 33.2029C32.1306 33.7765 32.0105 34.3501 31.8904 34.9238C31.8371 35.2039 31.757 35.4707 31.6236 35.7242C31.3568 36.2178 30.9299 36.4046 30.383 36.2978C30.0495 36.2311 29.756 36.0844 29.4892 35.8843C27.6482 34.5236 25.8072 33.1495 23.9529 31.7888C23.8729 31.7221 23.7795 31.6687 23.6995 31.6154C23.3793 31.522 23.1525 31.2819 22.8991 31.0951C22.0186 30.4548 21.1381 29.7878 20.2577 29.1474C20.191 29.0941 20.1243 29.0407 20.0709 28.974C19.9909 28.8406 20.0709 28.7606 20.1509 28.6805C21.3516 27.6133 22.5389 26.5194 23.7395 25.4522C24.6066 24.6651 25.4871 23.878 26.3542 23.0909C27.2213 22.3038 28.0884 21.5301 28.9556 20.7564C29.6359 20.1427 30.3163 19.5424 30.9833 18.9287C31.0366 18.8754 31.09 18.822 31.1434 18.7687C31.1834 18.7153 31.2367 18.6619 31.2101 18.5952C31.1834 18.5152 31.1033 18.5152 31.0366 18.5152C30.7965 18.4885 30.5964 18.5819 30.3963 18.702C29.6626 19.1422 28.9556 19.6091 28.2352 20.0627C26.0474 21.4367 23.8462 22.8241 21.6584 24.1982C20.1509 25.1453 18.6435 26.0925 17.136 27.053C16.9626 27.1464 16.8425 27.3198 16.6158 27.2398Z" fill="#FCFDFE"/>
<path d="M16.6157 27.2407C16.9759 27.094 17.2827 26.8538 17.6162 26.6537C18.5767 26.0534 19.5373 25.4531 20.4978 24.8394C21.1781 24.4126 21.8451 23.9723 22.5255 23.5454C23.6461 22.8384 24.78 22.1314 25.9139 21.4243C26.701 20.9307 27.4881 20.4238 28.2885 19.9169C28.9822 19.4766 29.6759 19.0364 30.3696 18.5962C30.5964 18.4628 30.8232 18.3827 31.1033 18.4094C31.1833 18.4227 31.2634 18.4227 31.2901 18.5028C31.3301 18.5828 31.3034 18.6629 31.2367 18.7429C31.0766 18.903 30.9299 19.0764 30.7431 19.2232C30.4096 19.49 30.1161 19.7968 29.796 20.0769C29.2757 20.5172 28.7954 20.9974 28.2752 21.4377C28.0617 21.6244 27.8616 21.8245 27.6482 22.0113C27.3413 22.2648 27.0478 22.5716 26.7544 22.8384C26.3008 23.2519 25.8339 23.6521 25.3803 24.0524C25.1802 24.2391 24.9668 24.4259 24.78 24.6127C24.2864 25.0796 23.7661 25.5198 23.2725 25.9867C22.6722 26.5337 22.0586 27.0673 21.4716 27.6276C21.0447 28.0278 20.5911 28.4013 20.1509 28.7882C20.0842 28.8415 20.0842 28.8949 20.1242 28.9616C20.0308 30.4691 19.9241 31.9765 19.8307 33.484C19.8041 33.8842 19.7507 34.271 19.764 34.6712C19.764 34.7913 19.764 34.898 19.6707 34.9914C19.5906 35.0181 19.4972 35.0181 19.4172 35.0181C19.1771 35.0048 19.0036 34.8847 18.9369 34.6579C18.8702 34.4178 18.7902 34.191 18.7235 33.9509C18.0698 31.8031 17.4161 29.642 16.7625 27.4942C16.6958 27.4008 16.6557 27.3207 16.6157 27.2407Z" fill="#CCD9E9"/>
<path d="M19.6307 34.9774C19.5907 34.4571 19.6841 33.9369 19.6974 33.4299C19.7241 32.8696 19.7775 32.3094 19.8042 31.7491C19.8442 31.1754 19.8842 30.6018 19.9242 30.0415C19.9376 29.748 19.9643 29.4545 19.9643 29.1744C19.9643 29.081 19.9909 29.0143 20.0843 28.9609C21.1649 29.7614 22.2454 30.5484 23.3127 31.3489C23.4327 31.4422 23.5661 31.5089 23.6595 31.629C22.659 32.6028 21.6451 33.5767 20.6446 34.5505C20.3778 34.8173 20.0576 35.0308 19.6307 34.9774Z" fill="#B1C8DB"/>
</g>
<defs>
<clipPath id="clip0">
<rect width="48" height="48" rx="12" fill="white"/>
</clipPath>
</defs>
</svg>
