<svg width="23" height="23" viewBox="0 0 23 23" fill="none" xmlns="http://www.w3.org/2000/svg">
<g clip-path="url(#clip0)">
<path d="M17.0456 5.00824C17.6099 4.75703 18.1796 4.62963 18.7496 4.62963C19.4884 4.62963 20.2448 4.85268 20.9806 5.28187C22.9999 2.97004 23 0.00732422 23 0.00732422C23 0.00732422 18.8464 2.37872 16.2363 3.06797C16.664 3.619 16.9515 4.28355 17.0456 5.00824Z" fill="#988060"/>
<path d="M2.01894 5.28245C2.75473 4.85321 3.51123 4.63017 4.25004 4.63017C4.81993 4.63017 5.38964 4.75757 5.95397 5.00873C6.04799 4.28403 6.33554 3.61949 6.76316 3.06846C4.15314 2.37921 -0.000488281 0.0078125 -0.000488281 0.0078125C-0.000488281 0.0078125 -0.000443383 2.97058 2.01894 5.28245Z" fill="#988060"/>
<path d="M18.7494 5.97754C18.357 5.97754 17.9806 6.07367 17.6309 6.2243C18.248 7.47774 18.5883 8.83213 18.6491 10.1977C18.6824 10.199 18.7158 10.1998 18.7493 10.1998C20.5923 10.1998 22.0862 8.0887 22.0862 8.0887C22.0862 8.0887 20.5923 5.97754 18.7494 5.97754Z" fill="#988060"/>
<path d="M5.36842 6.22426C5.01873 6.07363 4.64241 5.97754 4.25001 5.97754C2.40705 5.97754 0.913086 8.08865 0.913086 8.08865C0.913086 8.08865 2.40709 10.1998 4.25001 10.1998C4.28348 10.1998 4.31686 10.199 4.3501 10.1977C4.41102 8.83213 4.75126 7.47774 5.36842 6.22426Z" fill="#988060"/>
<path d="M15.8382 20.0544L15.7413 19.5485C15.6895 19.278 15.6516 19.0058 15.6271 18.7331L14.3784 15.2912C13.9565 14.1286 13.9196 12.8875 14.2716 11.7018C14.6236 10.5162 15.3318 9.49626 16.3196 8.75216L16.9778 8.2563C16.8074 7.66219 16.5726 7.08224 16.2727 6.5273L15.7326 5.52808C15.7326 4.05177 14.5358 2.85498 13.0595 2.85498H9.94083C8.46452 2.85498 7.26773 4.05177 7.26773 5.52808L6.72762 6.5273C6.42767 7.08224 6.1929 7.66219 6.02246 8.2563L6.68072 8.75216C7.66853 9.49626 8.37674 10.5162 8.72867 11.7018C9.08064 12.8875 9.04376 14.1286 8.62193 15.2912L7.37312 18.7332C7.34863 19.0059 7.31072 19.278 7.25892 19.5484L7.16202 20.0544C6.87007 21.579 8.03856 22.9924 9.59083 22.9924H13.4094C14.9617 22.9925 16.1302 21.579 15.8382 20.0544ZM10.7424 20.8451H9.39474V19.4136H10.7424V20.8451ZM13.6056 20.8451H12.2579V19.4136H13.6056V20.8451Z" fill="#988060"/>
<path d="M7.4365 12.0855C7.16719 11.1784 6.62538 10.398 5.86959 9.82867L5.73469 9.72705C5.56281 11.342 5.8461 12.9961 6.58813 14.4915C6.61284 14.5414 6.6371 14.5914 6.66082 14.6416C6.81688 14.972 6.94819 15.3116 7.05506 15.6578L7.35483 14.8316C7.67752 13.9421 7.70577 12.9926 7.4365 12.0855Z" fill="#988060"/>
<path d="M17.2652 9.72705L17.1304 9.82862C16.3746 10.3979 15.8327 11.1783 15.5634 12.0854C15.2942 12.9925 15.3224 13.9421 15.6451 14.8316L15.9448 15.6577C16.0517 15.3116 16.183 14.972 16.339 14.6416C16.3627 14.5914 16.387 14.5414 16.4117 14.4915C17.1538 12.9961 17.4371 11.342 17.2652 9.72705Z" fill="#988060"/>
</g>
<defs>
<clipPath id="clip0">
<rect width="23" height="23" fill="white"/>
</clipPath>
</defs>
</svg>
