<svg width="22" height="22" viewBox="0 0 22 22" fill="none" xmlns="http://www.w3.org/2000/svg">
<g clip-path="url(#clip0)">
<path d="M11.0063 2.89987C15.8016 -1.29433 21.8988 2.39082 21.9988 7.38663C22.0242 8.65982 21.6567 9.90002 20.9251 11.0434H16.1833L15.3399 9.63763C15.095 9.2295 14.5023 9.21635 14.2435 9.62324L12.464 12.4196L9.87008 6.94357C9.64387 6.46575 8.9697 6.45058 8.72019 6.91392L6.49664 11.0434H1.08738C-2.91967 4.78073 4.9996 -2.35373 11.0063 2.89987Z" fill="#988060"/>
<path d="M7.44917 11.9932L9.25097 8.64697L11.7989 14.0258C12.0156 14.4834 12.6532 14.5232 12.925 14.0959L14.7713 11.1948L15.2659 12.0192C15.3824 12.2133 15.5922 12.3321 15.8185 12.3321H19.9058C19.7776 12.4662 20.4605 11.7847 11.461 20.7376C11.2096 20.9877 10.8033 20.9877 10.5519 20.7376C1.69089 11.9224 2.23501 12.4659 2.10714 12.3321H6.88172C7.11885 12.3321 7.33677 12.2019 7.44917 11.9932Z" fill="#988060"/>
</g>
<defs>
<clipPath id="clip0">
<rect width="22" height="22" fill="white" transform="matrix(-1 0 0 1 22 0)"/>
</clipPath>
</defs>
</svg>
